<?xml version="1.0" standalone="no"?>
<!DOCTYPE svg PUBLIC "-//W3C//DTD SVG 20010904//EN"
 "http://www.w3.org/TR/2001/REC-SVG-20010904/DTD/svg10.dtd">
<svg version="1.0" xmlns="http://www.w3.org/2000/svg"
 width="700.000000pt" height="700.000000pt" viewBox="0 0 700.000000 700.000000"
 preserveAspectRatio="xMidYMid meet">
<metadata>
Created by potrace 1.11, written by Peter Selinger 2001-2013
</metadata>
<g transform="translate(0.000000,700.000000) scale(0.100000,-0.100000)"
fill="#000000" stroke="none">
<path d="M2710 6351 c-156 -52 -254 -91 -402 -163 l-147 -71 4 -106 c3 -58 7
-155 10 -216 2 -60 7 -182 11 -271 l6 -160 -38 -30 c-103 -80 -343 -323 -344
-347 0 -5 -51 -5 -112 -2 -62 4 -140 8 -173 10 -33 2 -114 6 -180 10 -66 5
-160 8 -210 9 l-90 1 -57 -110 c-32 -60 -74 -148 -93 -195 -39 -91 -115 -314
-115 -336 0 -7 8 -19 19 -26 17 -12 167 -148 267 -243 23 -22 75 -69 115 -105
151 -137 148 -132 142 -165 -9 -55 -12 -419 -3 -465 8 -44 8 -45 -43 -95 -29
-28 -88 -82 -132 -120 -44 -39 -82 -72 -85 -75 -4 -4 -254 -227 -286 -255 -26
-22 105 -380 214 -586 l40 -74 78 1 c44 1 144 4 224 8 80 3 215 8 300 11 l155
5 60 -75 c61 -76 165 -182 264 -267 61 -52 58 -40 47 -208 -6 -93 -9 -144 -21
-345 -3 -55 -8 -132 -10 -171 l-6 -70 73 -41 c136 -78 347 -167 507 -214 l74
-22 40 44 c22 24 81 89 131 143 50 54 98 107 106 116 8 9 58 63 110 120 52 56
98 107 101 112 4 6 17 10 30 9 185 -7 445 -8 483 -2 56 9 46 17 166 -119 36
-40 70 -78 75 -84 6 -6 62 -69 125 -141 63 -71 133 -149 155 -172 l40 -42 120
40 c148 49 289 107 420 173 l100 51 -1 105 c0 110 -10 388 -20 550 l-5 96 53
44 c29 25 73 63 98 86 25 23 56 53 70 66 14 12 59 61 100 108 51 59 81 85 95
83 11 0 79 -4 150 -8 72 -3 150 -8 175 -10 25 -2 97 -7 160 -10 63 -4 143 -8
177 -10 61 -4 63 -3 82 29 78 125 191 390 240 560 l17 59 -60 55 c-34 31 -110
101 -171 157 -131 121 -147 136 -247 227 -43 39 -76 73 -74 77 16 26 24 315
13 466 l-6 80 52 45 c48 41 160 140 220 193 13 12 54 49 91 82 37 32 78 68 90
80 12 11 42 37 65 58 l43 39 -42 130 c-51 155 -91 253 -167 406 l-57 114 -175
-7 c-97 -3 -212 -8 -256 -10 -44 -3 -134 -7 -201 -10 l-120 -5 -21 28 c-55 74
-196 220 -301 312 l-63 54 5 106 c9 150 16 265 21 340 3 36 7 119 11 185 l6
120 -129 67 c-136 70 -305 140 -440 181 l-82 25 -83 -91 c-46 -50 -106 -116
-134 -146 -28 -31 -62 -68 -75 -82 -139 -152 -222 -238 -228 -235 -26 16 -326
24 -462 11 l-75 -7 -56 64 c-31 34 -65 72 -75 84 -10 12 -47 54 -83 94 -36 40
-73 82 -82 92 -9 11 -46 52 -81 92 -35 39 -77 86 -92 104 -15 17 -32 32 -38
31 -7 0 -50 -13 -97 -28z m1070 -1176 c318 -46 612 -178 840 -374 305 -264
499 -618 555 -1016 19 -134 10 -403 -19 -530 -38 -175 -68 -261 -142 -410
-187 -377 -527 -670 -933 -805 -117 -39 -130 -43 -231 -60 -161 -28 -399 -30
-530 -5 -14 3 -41 8 -60 11 -75 13 -241 65 -331 104 -378 164 -675 462 -840
841 -48 112 -99 285 -114 389 -29 204 -23 434 17 595 7 28 13 52 13 55 33 143
125 351 217 490 77 116 112 157 228 271 159 155 346 275 553 353 140 52 210
69 402 96 58 8 309 5 375 -5z"/>
<path d="M2870 4619 c-69 -13 -162 -65 -220 -122 -152 -152 -179 -393 -62
-572 47 -72 98 -119 172 -160 l56 -30 -1 -545 0 -545 50 -55 c59 -65 67 -71
81 -66 6 2 47 30 92 62 l82 59 -1 55 c-1 30 -12 80 -24 111 l-23 57 23 24 c19
20 22 36 23 93 0 67 -2 72 -49 140 -27 39 -49 76 -49 81 0 5 23 32 51 59 47
46 50 53 45 87 -3 20 -15 56 -25 81 l-19 44 24 30 c20 27 24 41 23 104 -1 134
-5 125 54 154 135 68 230 208 244 357 l5 58 -48 0 c-62 1 -172 15 -272 35 -15
2 -35 -4 -54 -18 -38 -28 -120 -30 -160 -3 -101 66 -91 219 18 267 98 44 204
-21 208 -127 1 -42 3 -45 36 -54 35 -9 73 -14 199 -25 l64 -6 -7 33 c-11 60
-67 159 -120 211 -110 111 -260 156 -416 126z m91 -988 c3 0 6 -206 5 -456 l0
-455 -38 0 -38 0 0 453 c0 250 3 456 6 460 5 5 36 4 65 -2z"/>
<path d="M4066 4615 c-93 -24 -226 -110 -210 -137 4 -6 3 -8 -3 -5 -12 8 -56
-36 -46 -46 3 -4 2 -7 -4 -7 -13 0 -56 -88 -48 -100 3 -4 1 -10 -3 -12 -5 -1
-12 -15 -16 -31 l-6 -27 62 4 c93 7 172 18 183 24 5 4 19 6 30 7 16 0 20 8 22
43 4 93 84 160 173 146 127 -21 170 -183 71 -267 -53 -44 -124 -47 -180 -8
-24 17 -56 19 -91 5 -17 -7 -24 -8 -165 -19 -55 -4 -103 -12 -106 -17 -3 -4
-5 -212 -5 -461 l1 -452 98 0 c62 -1 97 3 97 9 0 8 3 8 8 1 10 -15 464 -15
474 -1 5 7 8 7 8 1 0 -6 43 -10 110 -10 l111 0 -4 505 c-1 278 -6 515 -9 527
-29 100 -130 236 -203 273 -17 8 -32 18 -35 21 -3 3 -27 13 -55 23 -71 24
-187 29 -259 11z m474 -531 c6 -6 12 -21 13 -33 1 -11 6 -21 12 -21 7 0 7 -3
0 -8 -15 -10 -15 -392 -1 -392 7 0 8 -3 1 -8 -14 -10 -15 -232 -1 -232 7 0 7
-3 1 -8 -5 -4 -15 -16 -21 -27 -11 -19 -23 -20 -360 -23 -192 -1 -356 1 -364
4 -8 4 -17 7 -20 6 -9 -1 -3 714 6 730 5 8 15 17 22 19 31 10 702 3 712 -7z"/>
<path d="M4120 3898 c-103 -15 -225 -94 -218 -141 5 -33 42 -33 86 0 56 44
103 62 170 66 74 5 146 -17 202 -62 45 -36 75 -40 90 -11 9 18 6 26 -26 57
-72 69 -196 106 -304 91z"/>
<path d="M4115 3781 c-104 -27 -173 -107 -112 -130 16 -7 27 -4 42 9 36 32 83
50 130 50 42 0 65 -9 148 -57 26 -15 47 -1 47 32 0 61 -159 121 -255 96z"/>
<path d="M4132 3666 c-64 -22 -94 -73 -55 -95 12 -6 28 -4 54 10 40 20 67 19
100 -4 31 -22 59 -10 59 24 0 50 -91 87 -158 65z"/>
<path d="M4152 3548 c-21 -21 -13 -52 19 -70 12 -7 39 25 39 47 0 32 -35 46
-58 23z"/>
<path d="M3413 4472 l-52 -3 21 -34 20 -35 143 1 c79 1 147 -1 152 -4 16 -10
52 13 68 42 l16 31 -33 1 c-118 3 -291 4 -335 1z"/>
<path d="M4086 4388 c-10 -16 -16 -31 -14 -32 1 -2 17 -10 33 -19 l30 -16 -32
-11 c-38 -14 -41 -28 -13 -58 20 -21 22 -21 53 -6 50 26 67 45 67 76 0 33 -35
71 -79 86 -25 9 -30 7 -45 -20z"/>
<path d="M2983 4394 c-35 -17 -58 -62 -49 -92 7 -21 40 -46 81 -62 21 -8 27
-5 45 20 l21 29 -37 19 -38 19 36 13 c36 13 37 14 22 42 -16 32 -35 34 -81 12z"/>
<path d="M3454 4221 c2 -46 9 -49 123 -47 l107 1 4 37 3 37 -119 -1 -119 -1 1
-26z"/>
</g>
</svg>
