<?xml version="1.0" encoding="UTF-8" standalone="no"?>
<!-- Created with Inkscape (http://www.inkscape.org/) -->

<svg
   xmlns:dc="http://purl.org/dc/elements/1.1/"
   xmlns:cc="http://creativecommons.org/ns#"
   xmlns:rdf="http://www.w3.org/1999/02/22-rdf-syntax-ns#"
   xmlns:svg="http://www.w3.org/2000/svg"
   xmlns="http://www.w3.org/2000/svg"
   xmlns:sodipodi="http://sodipodi.sourceforge.net/DTD/sodipodi-0.dtd"
   xmlns:inkscape="http://www.inkscape.org/namespaces/inkscape"
   width="500"
   height="500"
   viewBox="0 0 132.29166 132.29167"
   version="1.1"
   id="svg8"
   inkscape:version="0.92.4 (5da689c313, 2019-01-14)"
   sodipodi:docname="FabLock.svg"
   inkscape:export-filename="C:\Users\Joseph Langosch\Documents\fabinfra.gitlab.io\content\project\FabLock.png"
   inkscape:export-xdpi="98.300003"
   inkscape:export-ydpi="98.300003">
  <defs
     id="defs2">
    <inkscape:perspective
       sodipodi:type="inkscape:persp3d"
       inkscape:vp_x="0 : 66.145835 : 1"
       inkscape:vp_y="0 : 1000 : 0"
       inkscape:vp_z="132.29166 : 66.145835 : 1"
       inkscape:persp3d-origin="66.14583 : 44.097223 : 1"
       id="perspective815" />
  </defs>
  <sodipodi:namedview
     id="base"
     pagecolor="#ffffff"
     bordercolor="#666666"
     borderopacity="1.0"
     inkscape:pageopacity="0"
     inkscape:pageshadow="2"
     inkscape:zoom="1"
     inkscape:cx="13.5666"
     inkscape:cy="342.76584"
     inkscape:document-units="mm"
     inkscape:current-layer="layer1"
     showgrid="false"
     units="px"
     inkscape:window-width="2560"
     inkscape:window-height="1330"
     inkscape:window-x="-12"
     inkscape:window-y="-12"
     inkscape:window-maximized="1" />
  <metadata
     id="metadata5">
    <rdf:RDF>
      <cc:Work
         rdf:about="">
        <dc:format>image/svg+xml</dc:format>
        <dc:type
           rdf:resource="http://purl.org/dc/dcmitype/StillImage" />
        <dc:title />
      </cc:Work>
    </rdf:RDF>
  </metadata>
  <g
     inkscape:label="Ebene 1"
     inkscape:groupmode="layer"
     id="layer1"
     transform="translate(0,-164.70832)">
    <path
       id="path837"
       style="fill:none;stroke:#00d4aa;stroke-width:4.17507648;stroke-linecap:round;stroke-linejoin:round;stroke-miterlimit:4;stroke-dasharray:none;stroke-opacity:1"
       d="m 15.346437,226.43139 h 44.186224 l 13.255868,11.04654 m -44.186225,0 -13.255867,-11.04654 v 44.18622 l 13.255867,11.04656 m 0,0 H 72.78853 V 237.47793 H 28.602304 Z"
       inkscape:connector-curvature="0"
       sodipodi:nodetypes="cccccccccccc" />
    <path
       style="fill:none;stroke:#00d4aa;stroke-width:4.17507648;stroke-linecap:round;stroke-linejoin:round;stroke-miterlimit:4;stroke-dasharray:none;stroke-opacity:1"
       d="m 72.788529,237.47793 h 44.186221 v 44.18624 H 72.788529"
       id="path841"
       inkscape:connector-curvature="0"
       sodipodi:nodetypes="cccc" />
    <path
       style="fill:none;stroke:#00d4aa;stroke-width:4.17507648;stroke-linecap:round;stroke-linejoin:round;stroke-miterlimit:4;stroke-dasharray:none;stroke-opacity:1"
       d="m 59.532661,226.43139 v -44.18623 l 13.255869,11.04657 -10e-7,44.1862"
       id="path843"
       inkscape:connector-curvature="0"
       sodipodi:nodetypes="cccc" />
    <path
       style="fill:none;stroke:#00d4aa;stroke-width:4.17507648;stroke-linecap:round;stroke-linejoin:round;stroke-miterlimit:4;stroke-dasharray:none;stroke-opacity:1"
       d="m 59.532661,182.24516 h 39.767606 l 17.674483,11.04657 H 72.78853"
       id="path845"
       inkscape:connector-curvature="0"
       sodipodi:nodetypes="cccc" />
    <path
       style="fill:none;stroke:#00d4aa;stroke-width:4.17507648;stroke-linecap:round;stroke-linejoin:round;stroke-miterlimit:4;stroke-dasharray:none;stroke-opacity:1"
       d="m 116.97475,237.47793 v -44.1862"
       id="path847"
       inkscape:connector-curvature="0"
       sodipodi:nodetypes="cc" />
    <ellipse
       style="fill:#00d4aa;fill-opacity:1;stroke:none;stroke-width:4.17507648;stroke-linecap:round;stroke-linejoin:round;stroke-miterlimit:4;stroke-dasharray:none;stroke-dashoffset:0;stroke-opacity:1;paint-order:normal"
       id="path849"
       cx="64.39315"
       cy="256.91986"
       rx="2.6511734"
       ry="2.6511736" />
    <rect
       style="fill:#00d4aa;fill-opacity:1;stroke:none;stroke-width:4.17507648;stroke-linecap:round;stroke-linejoin:round;stroke-miterlimit:4;stroke-dasharray:none;stroke-dashoffset:0;stroke-opacity:1;paint-order:normal"
       id="rect851"
       width="2.6511734"
       height="4.4186225"
       x="63.067558"
       y="259.12921" />
    <ellipse
       style="fill:#00d4aa;fill-opacity:1;stroke:none;stroke-width:4.17507648;stroke-linecap:round;stroke-linejoin:round;stroke-miterlimit:4;stroke-dasharray:none;stroke-dashoffset:0;stroke-opacity:1;paint-order:normal"
       id="path849-3"
       cx="108.57936"
       cy="256.91986"
       rx="2.6511734"
       ry="2.6511736" />
    <rect
       style="fill:#00d4aa;fill-opacity:1;stroke:none;stroke-width:4.17507648;stroke-linecap:round;stroke-linejoin:round;stroke-miterlimit:4;stroke-dasharray:none;stroke-dashoffset:0;stroke-opacity:1;paint-order:normal"
       id="rect851-1"
       width="2.6511734"
       height="4.4186225"
       x="107.25375"
       y="259.12921" />
    <ellipse
       style="fill:#00d4aa;fill-opacity:1;stroke:none;stroke-width:4.17507648;stroke-linecap:round;stroke-linejoin:round;stroke-miterlimit:4;stroke-dasharray:none;stroke-dashoffset:0;stroke-opacity:1;paint-order:normal"
       id="path849-2"
       cx="108.57936"
       cy="212.73364"
       rx="2.6511734"
       ry="2.6511736" />
    <rect
       style="fill:#00d4aa;fill-opacity:1;stroke:none;stroke-width:4.17507648;stroke-linecap:round;stroke-linejoin:round;stroke-miterlimit:4;stroke-dasharray:none;stroke-dashoffset:0;stroke-opacity:1;paint-order:normal"
       id="rect851-4"
       width="2.6511734"
       height="4.4186225"
       x="107.25377"
       y="214.94298" />
  </g>
</svg>
